<?xml version="1.0" encoding="UTF-8"?>
<svg version="1.1" viewBox="0 0 48 48" xmlns="http://www.w3.org/2000/svg" xmlns:xlink="http://www.w3.org/1999/xlink">
    <defs>
        <linearGradient id="linearGradient4723" x1="24" x2="24" y1="1048.4" y2="1008.4" gradientTransform="translate(0 -1004.4)" gradientUnits="userSpaceOnUse">
            <stop stop-color="#12375a" offset="0"/>
            <stop stop-color="#537596" offset="1"/>
        </linearGradient>
        <linearGradient id="linearGradient4182" x1="16" x2="40" y1="11" y2="35" gradientUnits="userSpaceOnUse">
            <stop offset="0"/>
            <stop stop-opacity="0" offset="1"/>
        </linearGradient>
    </defs>
    <circle cx="24" cy="24" r="20" fill="url(#linearGradient4723)"/>
    <path d="m37.5 28s-2.5 10-13.5 10c-10 0-14-9-14-13l3 2" fill="none" stroke="#f4f5f5" stroke-linecap="round" stroke-linejoin="round" stroke-width="2"/>
    <path d="m24.398 9.5566-6.4219 1.5566-4.748 3.7285-3.625 5.6641 21.982 21.984a20 20 0 0 0 12.414-18.49 20 20 0 0 0-0.046875-1.2988l-9.502-9.502-10.053-3.6426z" fill="url(#linearGradient4182)" opacity=".2"/>
    <path d="m10.5 20s2.5-10 13.5-10c10 0 14 9 14 13l-3-2" fill="none" stroke="#f4f5f5" stroke-linecap="round" stroke-linejoin="round" stroke-width="2"/>
    <path d="M 43.978516,23.417969 A 20,20 0 0 1 24,43 20,20 0 0 1 4.0214844,23.582031 20,20 0 0 0 4,24 20,20 0 0 0 24,44 20,20 0 0 0 44,24 20,20 0 0 0 43.978516,23.417969 Z" opacity=".15"/>
</svg>
