<?xml version="1.0" encoding="UTF-8"?>
<svg version="1.1" viewBox="0 0 64 64" xmlns="http://www.w3.org/2000/svg" xmlns:xlink="http://www.w3.org/1999/xlink">
    <defs>
        <linearGradient id="linearGradient5002">
            <stop stop-color="#2e5d89" offset="0"/>
            <stop stop-color="#1b92f4" offset="1"/>
        </linearGradient>
        <linearGradient id="linearGradient4352" x1="400.57" x2="415.57" y1="512.8" y2="527.8" gradientTransform="matrix(1.1818 0 0 1.1818 -74.286 -95.732)" gradientUnits="userSpaceOnUse" xlink:href="#linearGradient5002"/>
        <linearGradient id="linearGradient4199">
            <stop stop-color="#2f3943" offset="0"/>
            <stop stop-color="#4d5662" offset="1"/>
        </linearGradient>
        <linearGradient id="linearGradient4617" x2="0" y1="531.8" y2="501.7" gradientTransform="matrix(1.0833 0 0 1.3356 -34.047 -170.45)" gradientUnits="userSpaceOnUse">
            <stop stop-color="#c6cdd1" offset="0"/>
            <stop stop-color="#e0e5e7" offset="1"/>
        </linearGradient>
        <linearGradient id="linearGradient4749" x2="0" y1="530.8" y2="528.8" gradientTransform="matrix(1.5 0 0 1.5 -182.29 -282.4)" gradientUnits="userSpaceOnUse">
            <stop stop-color="#f33777" offset="0"/>
            <stop stop-color="#fd2d65" offset="1"/>
        </linearGradient>
        <linearGradient id="linearGradient4327-2" x1="402.41" x2="415.57" y1="514.63" y2="527.8" gradientTransform="translate(-7 4.0273)" gradientUnits="userSpaceOnUse" xlink:href="#linearGradient5002"/>
        <linearGradient id="linearGradient4352-6" x1="400.57" x2="415.57" y1="512.8" y2="527.8" gradientTransform="translate(79 3.6562)" gradientUnits="userSpaceOnUse" xlink:href="#linearGradient5002"/>
        <linearGradient id="linearGradient4356-76" x1="397.48" x2="415.57" y1="509.7" y2="527.8" gradientTransform="matrix(.8 0 0 .8 74.715 107.99)" gradientUnits="userSpaceOnUse" xlink:href="#linearGradient5002"/>
        <linearGradient id="linearGradient4356-7-7" x1="386.06" x2="415.57" y1="498.29" y2="527.8" gradientTransform="matrix(.6 0 0 .6 156.43 211.95)" gradientUnits="userSpaceOnUse" xlink:href="#linearGradient5002"/>
        <linearGradient id="linearGradient4510-5" x1="398.57" x2="418.57" y1="508.8" y2="528.8" gradientTransform="matrix(-1 0 0 -1 810.14 1043.6)" gradientUnits="userSpaceOnUse" xlink:href="#linearGradient4199"/>
        <linearGradient id="linearGradient4510-8-2" x1="398.3" x2="419.77" y1="509.53" y2="531" gradientTransform="matrix(.78571 0 0 .78571 80.551 115.41)" gradientUnits="userSpaceOnUse">
            <stop stop-color="#18222a" offset="0"/>
            <stop stop-color="#566069" offset="1"/>
        </linearGradient>
        <linearGradient id="linearGradient4609-6" x1="421.57" x2="398.57" y1="530.8" y2="507.8" gradientTransform="translate(-7 4.0273)" gradientUnits="userSpaceOnUse">
            <stop stop-color="#a1adb3" offset="0"/>
            <stop stop-color="#bfc7cb" offset="1"/>
        </linearGradient>
        <linearGradient id="linearGradient4735-2" x2="0" y1="519.8" y2="541.01" gradientTransform="matrix(.70711 -.70711 .70711 .70711 -254.88 445.18)" gradientUnits="userSpaceOnUse">
            <stop offset="0"/>
            <stop stop-opacity="0" offset="1"/>
        </linearGradient>
        <linearGradient id="linearGradient4352-5" x1="400.57" x2="415.57" y1="512.8" y2="527.8" gradientTransform="matrix(1.1818 0 0 1.1818 6.7143 -89.236)" gradientUnits="userSpaceOnUse" xlink:href="#linearGradient5002"/>
        <linearGradient id="linearGradient4861" x2="0" y1="41" y2="23" gradientUnits="userSpaceOnUse" xlink:href="#linearGradient4199"/>
        <linearGradient id="linearGradient4352-9" x1="400.57" x2="415.57" y1="512.8" y2="527.8" gradientTransform="matrix(1.1818 0 0 1.1818 3.7143 -96.236)" gradientUnits="userSpaceOnUse" xlink:href="#linearGradient5002"/>
        <linearGradient id="linearGradient4159-5">
            <stop stop-color="#1d1e1e" offset="0"/>
            <stop stop-color="#44484c" offset="1"/>
        </linearGradient>
        <linearGradient id="linearGradient4784-5" x2="0" y1="541.8" y2="543.8" gradientTransform="matrix(1.625 0 0 1 -255.36 -36.01)" gradientUnits="userSpaceOnUse" xlink:href="#linearGradient4159-5"/>
        <linearGradient id="linearGradient4784-5-7" x2="0" y1="541.8" y2="543.8" gradientTransform="matrix(1.625 0 0 1 -255.36 -2.0103)" gradientUnits="userSpaceOnUse" xlink:href="#linearGradient4159-5"/>
        <linearGradient id="linearGradient4208" x2="0" y1="504.8" y2="499.8" gradientTransform="translate(0 1.9999)" gradientUnits="userSpaceOnUse" xlink:href="#linearGradient4159-5"/>
    </defs>
    <g transform="translate(-376.57 -491.8)">
        <rect x="424.57" y="503.8" width="6" height="3" fill="url(#linearGradient4208)"/>
        <rect x="382.57" y="507.77" width="52" height="32.055" rx="0" fill="url(#linearGradient4617)" stroke-linecap="round" stroke-linejoin="round" stroke-width="2"/>
        <path d="m426.07 510.8a1.5 1.5 0 0 0-1.5 1.5 1.5 1.5 0 0 0 1.5 1.5 1.5 1.5 0 0 0 1.5-1.5 1.5 1.5 0 0 0-1.5-1.5z" fill="url(#linearGradient4749)" stroke-linecap="square" stroke-width=".1"/>
        <path d="m412.89 512.51-22.629 22.629 0.68554 0.68555h32.629v-10.629z" fill="url(#linearGradient4735-2)" opacity=".2" stroke-linecap="round" stroke-linejoin="round" stroke-width="2"/>
        <circle cx="401.57" cy="523.83" r="16" fill="url(#linearGradient4609-6)" stroke-linecap="round" stroke-linejoin="round" stroke-width="2"/>
        <path d="m387.57 523.83a14 14 0 0 1 14-14 14 14 0 0 1 14 14 14 14 0 0 1-14 14 14 14 0 0 1-14-14z" fill="url(#linearGradient4510-5)" stroke-linecap="round" stroke-linejoin="round" stroke-width="2"/>
        <circle cx="401.57" cy="523.83" r="11" fill="url(#linearGradient4510-8-2)" stroke-linecap="round" stroke-linejoin="round" stroke-width="2"/>
        <circle cx="401.57" cy="523.83" r="10" fill="url(#linearGradient4327-2)" stroke-linecap="round" stroke-linejoin="round" stroke-width="2"/>
        <circle cx="401.57" cy="523.83" r="8" fill="url(#linearGradient4356-76)" stroke-linecap="round" stroke-linejoin="round" stroke-width="2"/>
        <circle cx="401.57" cy="523.83" r="6" fill="url(#linearGradient4356-7-7)" stroke-linecap="round" stroke-linejoin="round" stroke-width="2"/>
        <circle cx="401.57" cy="523.83" r="4" fill="#2c3e50" stroke-linecap="round" stroke-linejoin="round" stroke-width="2"/>
        <circle cx="398.57" cy="520.83" r="1" fill="#84cbfe" stroke-linecap="round" stroke-linejoin="round" stroke-width="2"/>
        <ellipse cx="396.57" cy="518.83" rx="1.5" ry="1.5" fill="#84cbfe" stroke-linecap="round" stroke-linejoin="round" stroke-width="2"/>
        <path transform="translate(376.57 491.8)" d="m55 23c-1.108 0-2 0.89199-2 2v14c0 1.108 0.89199 2 2 2h1 2v-2-14-2h-2-1z" fill="url(#linearGradient4861)" stroke-linecap="round"/>
        <rect x="382.57" y="505.8" width="52" height="2" fill="url(#linearGradient4784-5)" stroke-linecap="round" stroke-linejoin="round" stroke-width="2"/>
        <rect x="382.57" y="539.8" width="52" height="2" fill="url(#linearGradient4784-5-7)" stroke-linecap="round" stroke-linejoin="round" stroke-width="2"/>
    </g>
</svg>
