<?xml version="1.0" encoding="UTF-8"?>
<svg version="1.1" viewBox="0 0 48 48" xmlns="http://www.w3.org/2000/svg" xmlns:xlink="http://www.w3.org/1999/xlink">
    <defs>
        <linearGradient id="linearGradient4158" x1="409.57" x2="409.57" y1="543.8" y2="503.8" gradientTransform="matrix(1.125 0 0 1 -51.072 0)" gradientUnits="userSpaceOnUse">
            <stop stop-color="#1d1e1e" offset="0"/>
            <stop stop-color="#44484c" offset="1"/>
        </linearGradient>
        <linearGradient id="linearGradient4555" x1="35" x2="35" y1="44" y2="7" gradientUnits="userSpaceOnUse">
            <stop stop-color="#197cf1" offset="0"/>
            <stop stop-color="#20bcfa" offset="1"/>
        </linearGradient>
        <linearGradient id="linearGradient4866" x1="396.57" x2="396.57" y1="520.8" y2="503.8" gradientUnits="userSpaceOnUse">
            <stop stop-color="#c61423" offset="0"/>
            <stop stop-color="#dc2b41" offset="1"/>
        </linearGradient>
        <linearGradient id="linearGradient4884" x1="8" x2="22" y1="4" y2="18" gradientUnits="userSpaceOnUse">
            <stop stop-color="#292c2f" offset="0"/>
            <stop stop-opacity="0" offset="1"/>
        </linearGradient>
        <linearGradient id="linearGradient5028" x1="396.57" x2="396.57" y1="527.8" y2="504.8" gradientUnits="userSpaceOnUse">
            <stop stop-color="#fff" offset="0"/>
            <stop stop-color="#fff" stop-opacity="0" offset="1"/>
        </linearGradient>
    </defs>
    <g transform="translate(-384.57 -499.8)">
        <rect x="390.57" y="503.8" width="36" height="40" ry="0" fill="url(#linearGradient4158)"/>
        <path transform="translate(384.57 499.8)" d="m42 6.707c-1.0969 0.45325-2.1941 1.0487-3.291 1.8281-1.8446 1.3107-3.5917 2.9609-5.2422 4.9512-1.6019 1.9417-3.0585 4.1513-4.3691 6.627-1.2621 2.4272-2.2088 4.9509-2.8398 7.5723-0.6796 2.6213-0.97013 5.0245-0.87305 7.209 0.14563 2.1359 0.60612 3.9324 1.3828 5.3887 0.77669 1.4563 1.8439 2.4998 3.2031 3.1309 1.3592 0.63106 2.962 0.75162 4.8066 0.36328 1.7961-0.38835 3.6163-1.2362 5.4609-2.5469 0.60381-0.43351 1.1875-0.90763 1.7617-1.4004v-4.5703c-0.36206 0.28213-0.73053 0.55082-1.1055 0.80078-1.4563 0.92232-2.8654 1.4559-4.2246 1.6016-1.4077 0.14563-2.5955-0.097455-3.5664-0.72852s-1.7238-1.5777-2.2578-2.8398c-0.48543-1.2621-0.72852-2.7661-0.72852-4.5137-1e-6 -1.7961 0.29053-3.7388 0.87305-5.8262 0.58251-2.0873 1.4086-4.0775 2.4766-5.9707 1.0679-1.9417 2.232-3.6414 3.4941-5.0977 1.3107-1.5048 2.6704-2.7183 4.0781-3.6406 0.32155-0.21436 0.64176-0.40009 0.96094-0.57422v-1.7637z" fill="url(#linearGradient4555)"/>
        <rect x="390.57" y="542.8" width="36" height="1" fill="#080809"/>
        <rect x="390.57" y="503.8" width="2" height="40" fill="#080809" opacity=".6"/>
        <path transform="translate(384.57 499.8)" d="m16 4v14 3l-4-2.3086-4 2.3086 23 23h11v-14l-26-26z" fill="url(#linearGradient4884)" fill-rule="evenodd" opacity=".2"/>
        <rect x="392.57" y="541.8" width="34" height="1" fill="#8b8f8f"/>
        <rect x="392.57" y="540.8" width="34" height="1" fill="#212323" fill-opacity=".45198"/>
        <path d="m392.57 503.8v17l4-2.3086 4 2.3086v-17h-8z" fill="url(#linearGradient4866)"/>
        <path d="m393.57 503.8h6v15l-3-2-3 2z" fill="url(#linearGradient5028)" opacity=".15"/>
    </g>
</svg>
