<?xml version="1.0" encoding="UTF-8"?>
<svg version="1.1" viewBox="0 0 32 32" xmlns="http://www.w3.org/2000/svg" xmlns:xlink="http://www.w3.org/1999/xlink">
    <defs>
        <linearGradient id="linearGradient4327" x2="0" y1="545.8" y2="517.8" gradientUnits="userSpaceOnUse">
            <stop stop-color="#197cf1" offset="0"/>
            <stop stop-color="#20bcfa" offset="1"/>
        </linearGradient>
        <linearGradient id="linearGradient4783" x2="0" y1="545.8" y2="517.8" gradientTransform="matrix(.42857 0 0 .42857 232.9 299.88)" gradientUnits="userSpaceOnUse">
            <stop stop-color="#7cbaf8" offset="0"/>
            <stop stop-color="#f4fcff" offset="1"/>
        </linearGradient>
        <linearGradient id="linearGradient4996" x1="401.57" x2="415.57" y1="516.7" y2="530.7" gradientTransform="translate(-388.57 -511.8)" gradientUnits="userSpaceOnUse">
            <stop stop-color="#292c2f" offset="0"/>
            <stop stop-opacity="0" offset="1"/>
        </linearGradient>
    </defs>
    <g transform="translate(-384.57 -515.8)">
        <path d="m414.57 517.8v21h-7v7l-7-7h-14v-21h28z" fill="url(#linearGradient4327)"/>
        <path transform="translate(384.57 515.8)" d="m26.9 4.9004-1.9004 11h-3-3-6l10 10v-2.9004h7v-15l-3.0996-3.0996z" fill="url(#linearGradient4996)" fill-rule="evenodd" opacity=".2"/>
        <path d="m411.57 520.8v10.9h-5v3l-3-3h-6v-10.9z" fill="url(#linearGradient4783)"/>
    </g>
</svg>
