<?xml version="1.0" encoding="UTF-8"?>
<svg viewBox="0 0 48 48" xmlns="http://www.w3.org/2000/svg" xmlns:xlink="http://www.w3.org/1999/xlink">
    <defs>
        <linearGradient id="3" x2="0" y1="534.8" y2="505.8" gradientTransform="matrix(1 0 0 1.0345 -384.57 -516.24)" gradientUnits="userSpaceOnUse">
            <stop stop-color="#c52828" offset="0"/>
            <stop stop-color="#ff5454" offset="1"/>
        </linearGradient>
        <linearGradient id="5" x2="0" y1="536.8" y2="503.8" gradientTransform="translate(-384.57 -498.8)" gradientUnits="userSpaceOnUse">
            <stop stop-color="#2a2c2f" offset="0"/>
            <stop stop-color="#424649" offset="1"/>
        </linearGradient>
        <linearGradient id="7" x2="0" y1="547.8" y2="536.8" gradientTransform="matrix(1 0 0 .54545 -384.3 -255.05)" gradientUnits="userSpaceOnUse">
            <stop stop-color="#c6cdd1" offset="0"/>
            <stop stop-color="#e0e5e7" offset="1"/>
        </linearGradient>
        <linearGradient id="9" x1="252.72" x2="255.42" y1="388.5" y2="-76.617" gradientTransform="matrix(.047198 0 0 .044266 12 10.746)" gradientUnits="userSpaceOnUse">
            <stop stop-color="#f9f9f9" offset="0"/>
            <stop stop-color="#afafaf" offset="1"/>
        </linearGradient>
    </defs>
    <path d="m18.269 37.746v3.8182 1.0909 1.0909h12v-1.0909-1.0909-3.8182z" fill="url(#7)"/>
    <path d="m0 5v36h48v-36h-48zm2 2h44v30h-44v-30z" fill="url(#5)"/>
    <rect x="2" y="7" width="44" height="30" fill="url(#3)"/>
    <rect x="13.27" y="42.75" width="22" height="2" fill="#99a1a7"/>
    <path d="m35.795 17.75c-0.13352-1.4983-1.0861-3.3878-3.0437-3.4553-5.4663-0.34469-11.942-0.43894-17.507 0-1.7266 0.1815-2.9102 2.1539-3.0391 3.6522-0.27301 3.1472-0.27301 4.9382 0 8.0853 0.1305 1.4983 1.2841 3.482 3.0422 3.6902 5.6313 0.34468 12.076 0.39391 17.507 0 1.7041-0.27717 2.9117-2.1919 3.0422-3.6902 0.27149-3.1486 0.27149-5.1351-9.23e-4 -8.2823zm-14.797 8.2316v-8.0685l7.5004 4.0349-7.5004 4.0335z" fill="url(#9)" opacity=".878" stroke-width="1.317"/>
</svg>
